<svg xmlns="http://www.w3.org/2000/svg" width="624.043" height="378" viewBox="0 0 624.043 378">
  <g id="vir-1" transform="translate(-38 -45)">
    <g id="Groupe_91" data-name="Groupe 91" transform="translate(38 45.423)">
      <g id="Groupe_90" data-name="Groupe 90" transform="translate(4.231 3.952)">
        <path id="Tracé_102" data-name="Tracé 102" d="M13589.027,8076.123l85.671,6.491,9.285,54.641,144.693,25.011-23.214-131.944-85.358-32.216-140.184-9.644" transform="translate(-13579.921 -7923.427)" fill="none" stroke="#d0d0d0" stroke-width="0.5"/>
        <path id="Tracé_103" data-name="Tracé 103" d="M14057.322,8053.953l114.6-21.133,39.668,64.247-132.007,87.588" transform="translate(-13830.909 -7946.748)" fill="none" stroke="#d0d0d0" stroke-width="0.5"/>
        <path id="Tracé_104" data-name="Tracé 104" d="M14250.076,7851.333l23.839,86.33" transform="translate(-13932.248 -7851.333)" fill="none" stroke="#d0d0d0" stroke-width="0.5"/>
        <path id="Tracé_105" data-name="Tracé 105" d="M14382.607,8124.686l60.689,8.933,79.016-51.343" transform="translate(-14001.924 -7972.749)" fill="none" stroke="#d0d0d0" stroke-width="0.5"/>
      </g>
      <circle id="Ellipse_82" data-name="Ellipse 82" cx="4" cy="4" r="4" transform="translate(382 149.577)" fill="#d0d0d0"/>
      <circle id="Ellipse_94" data-name="Ellipse 94" cx="2.5" cy="2.5" r="2.5" transform="translate(342 88.577)" fill="#d0d0d0"/>
      <ellipse id="Ellipse_83" data-name="Ellipse 83" cx="5" cy="5.5" rx="5" ry="5.5" transform="translate(431 324.577)" fill="#d0d0d0"/>
      <circle id="Ellipse_84" data-name="Ellipse 84" cx="3.32" cy="3.32" r="3.32" transform="translate(482.884 244.714) rotate(9)" fill="#d0d0d0"/>
      <circle id="Ellipse_85" data-name="Ellipse 85" cx="2.347" cy="2.347" r="2.347" transform="translate(375.541 112.858) rotate(9)" fill="#d0d0d0"/>
      <ellipse id="Ellipse_86" data-name="Ellipse 86" cx="3.5" cy="4" rx="3.5" ry="4" transform="translate(319 -0.423)" fill="#d0d0d0"/>
      <circle id="Ellipse_95" data-name="Ellipse 95" cx="3.5" cy="3.5" r="3.5" transform="translate(521 108.577)" fill="#d0d0d0"/>
      <ellipse id="Ellipse_96" data-name="Ellipse 96" cx="3" cy="2.5" rx="3" ry="2.5" transform="translate(442 162.577)" fill="#d0d0d0"/>
      <circle id="Ellipse_87" data-name="Ellipse 87" cx="4" cy="4" r="4" transform="translate(0 65.577)" fill="#d0d0d0"/>
      <circle id="Ellipse_88" data-name="Ellipse 88" cx="2.5" cy="2.5" r="2.5" transform="translate(12 154.577)" fill="#d0d0d0"/>
      <circle id="Ellipse_89" data-name="Ellipse 89" cx="2.5" cy="2.5" r="2.5" transform="translate(106 215.577)" fill="#d0d0d0"/>
      <circle id="Ellipse_91" data-name="Ellipse 91" cx="2" cy="2" r="2" transform="translate(251 240.577)" fill="#d0d0d0"/>
      <ellipse id="Ellipse_92" data-name="Ellipse 92" cx="3.5" cy="4" rx="3.5" ry="4" transform="translate(227 106.577)" fill="#d0d0d0"/>
      <circle id="Ellipse_93" data-name="Ellipse 93" cx="6" cy="6" r="6" transform="translate(139 72.577)" fill="#d0d0d0"/>
      <circle id="Ellipse_90" data-name="Ellipse 90" cx="1.5" cy="1.5" r="1.5" transform="translate(97 161.577)" fill="#d0d0d0"/>
    </g>
    <circle id="Ellipse_160" data-name="Ellipse 160" cx="3.5" cy="3.5" r="3.5" transform="translate(655.043 364)" fill="#d0d0d0"/>
    <g id="Ellipse_161" data-name="Ellipse 161" transform="translate(319.043 419)" fill="#d0d0d0" stroke="#d0d0d0" stroke-width="0.5">
      <circle cx="2" cy="2" r="2" stroke="none"/>
      <circle cx="2" cy="2" r="1.75" fill="none"/>
    </g>
  </g>
</svg>
