<svg xmlns="http://www.w3.org/2000/svg" xmlns:xlink="http://www.w3.org/1999/xlink" width="101.327" height="99.511" viewBox="0 0 101.327 99.511">
  <defs>
    <linearGradient id="linear-gradient" x1="0.5" x2="0.5" y2="1" gradientUnits="objectBoundingBox">
      <stop offset="0" stop-color="#d2bfe4"/>
      <stop offset="1" stop-color="#ffabbb"/>
    </linearGradient>
  </defs>
  <path id="Soustraction_1" data-name="Soustraction 1" d="M90.327,99.511H11a11,11,0,0,1-11-11V11A11,11,0,0,1,11,0H90.327a11,11,0,0,1,11,11V88.511a11,11,0,0,1-11,11ZM50.663,5.919c-7.685,0-14.506.118-17.8.308a33.482,33.482,0,0,0-9.726,1.734,21.853,21.853,0,0,0-8.355,5.329,22.091,22.091,0,0,0-5.254,8.473,34.941,34.941,0,0,0-1.716,9.9c-.406,7.269-.406,28.9,0,36.173a34.5,34.5,0,0,0,1.709,9.9A22.133,22.133,0,0,0,14.781,86.2a21.889,21.889,0,0,0,8.347,5.331,33.29,33.29,0,0,0,9.734,1.751c3.3.19,10.117.308,17.8.308s14.506-.118,17.8-.308a33.009,33.009,0,0,0,9.741-1.736,21.69,21.69,0,0,0,8.34-5.346,22.21,22.21,0,0,0,5.247-8.474,34.844,34.844,0,0,0,1.723-9.9c.406-7.264.406-28.888,0-36.153a34.478,34.478,0,0,0-1.709-9.9,22.135,22.135,0,0,0-5.262-8.473,21.763,21.763,0,0,0-8.34-5.331,33.33,33.33,0,0,0-9.741-1.751C65.169,6.037,58.348,5.919,50.663,5.919ZM58.3,85.747h0c-1.619,0-3.179-.016-4.555-.03-1.121-.012-2.18-.022-3.074-.022-.877,0-1.912.01-3.009.021-1.344.013-2.866.028-4.446.028-4.076,0-7.232-.1-9.934-.317a29.438,29.438,0,0,1-8.047-1.493,14.692,14.692,0,0,1-8.2-8.334C15.1,70.65,15.208,59.957,15.279,52.881c.011-1.142.022-2.218.022-3.125,0-.89-.01-1.942-.02-3.056-.067-7.106-.169-17.839,1.753-22.787a14.7,14.7,0,0,1,8.2-8.334A29.048,29.048,0,0,1,33.2,14.084c2.68-.218,5.806-.319,9.839-.319,1.619,0,3.179.016,4.556.03,1.122.012,2.181.022,3.074.022.875,0,1.911-.01,3.008-.021,1.347-.013,2.869-.028,4.45-.028,4.075,0,7.232.1,9.933.317a29.444,29.444,0,0,1,8.046,1.492,14.7,14.7,0,0,1,8.2,8.334c1.933,4.95,1.826,15.644,1.756,22.72-.011,1.139-.022,2.215-.022,3.124s.011,1.985.022,3.125c.071,7.083.177,17.786-1.756,22.719a14.69,14.69,0,0,1-8.2,8.334,29.04,29.04,0,0,1-7.967,1.494C65.462,85.646,62.335,85.747,58.3,85.747Zm-7.629-58.47A21.88,21.88,0,0,0,35.018,33.85a22.364,22.364,0,0,0-4.735,7.144,22.993,22.993,0,0,0,0,17.523,22.364,22.364,0,0,0,4.735,7.144,21.915,21.915,0,0,0,31.309,0,22.364,22.364,0,0,0,4.735-7.144,22.993,22.993,0,0,0,0-17.523,22.364,22.364,0,0,0-4.735-7.144,21.882,21.882,0,0,0-15.655-6.573ZM73.7,21.115a5.266,5.266,0,0,0-3.656,8.95,5.12,5.12,0,0,0,7.305.007A5.266,5.266,0,0,0,73.7,21.115ZM50.673,64.37A14.616,14.616,0,1,1,65.057,49.756,14.517,14.517,0,0,1,50.673,64.37Z" fill="url(#linear-gradient)"/>
</svg>
