<svg xmlns="http://www.w3.org/2000/svg" xmlns:xlink="http://www.w3.org/1999/xlink" width="224.797" height="219.904" viewBox="0 0 224.797 219.904">
  <defs>
    <clipPath id="clip-path">
      <circle id="Ellipse_33" data-name="Ellipse 33" cx="85.582" cy="85.582" r="85.582" fill="#fff"/>
    </clipPath>
    <linearGradient id="linear-gradient" y1="0.5" x2="1" y2="0.5" gradientUnits="objectBoundingBox">
      <stop offset="0.028" stop-color="#a2d2ff"/>
      <stop offset="0.903" stop-color="#307efe"/>
    </linearGradient>
  </defs>
  <g id="lune" transform="matrix(0.951, -0.309, 0.309, 0.951, -1358.419, -5077.019)">
    <g id="Groupe_132" data-name="Groupe 132" transform="translate(-294.166 5301.285)">
      <ellipse id="Ellipse_149" data-name="Ellipse 149" cx="90.133" cy="86.324" rx="90.133" ry="86.324" transform="translate(0)" fill="#fff"/>
      <g id="Groupe_44" data-name="Groupe 44" transform="translate(8.938 2)" clip-path="url(#clip-path)">
        <g id="Groupe_43" data-name="Groupe 43" transform="translate(-2.139 -4.279)">
          <g id="Groupe_39" data-name="Groupe 39" transform="translate(82.181 49.119)">
            <path id="Tracé_22" data-name="Tracé 22" d="M956.069,317.216c18.258,13.815,33.091,19.444,31.38,30.7s-3.994,23.536-3.994,23.536-6.276,6.141,7.988,9.723,23.391,4.092,23.391,12.279,3.993,9.211-6.846,12.793-36.515,14.838-42.79,5.116-7.418-11.257-3.424-16.373,9.7-5.629,1.141-13.815-14.834-9.211-15.975-17.4,6.276-8.7,4.563-15.861-3.422-12.281-3.422-18.932S956.069,317.216,956.069,317.216Z" transform="translate(-946.82 -317.216)" fill="none" stroke="#a2d2ff" stroke-linecap="round" stroke-linejoin="round" stroke-width="1"/>
            <path id="Tracé_23" data-name="Tracé 23" d="M959.527,332.251c10.1,7.641,18.3,10.755,17.358,16.981s-2.209,13.018-2.209,13.018-3.472,3.4,4.417,5.378,12.939,2.263,12.939,6.793,2.21,5.093-3.786,7.075-20.2,8.208-23.669,2.83-4.1-6.226-1.893-9.056,5.365-3.113.631-7.641-8.2-5.095-8.837-9.623,3.472-4.812,2.526-8.773-1.893-6.793-1.893-10.473S959.527,332.251,959.527,332.251Z" transform="translate(-942.192 -308.049)" fill="none" stroke="#a2d2ff" stroke-linecap="round" stroke-linejoin="round" stroke-width="1"/>
            <path id="Tracé_24" data-name="Tracé 24" d="M962.985,347.285c1.94,1.468,3.516,2.067,3.334,3.263s-.423,2.5-.423,2.5-.668.654.848,1.034,2.485.435,2.485,1.306.425.979-.728,1.359-3.879,1.577-4.548.544-.787-1.2-.364-1.74,1.032-.6.122-1.468-1.578-.979-1.7-1.848.666-.924.485-1.685a8.26,8.26,0,0,1-.364-2.012C962.135,347.829,962.985,347.285,962.985,347.285Z" transform="translate(-937.563 -298.882)" fill="none" stroke="#a2d2ff" stroke-linecap="round" stroke-linejoin="round" stroke-width="1"/>
          </g>
          <path id="Tracé_25" data-name="Tracé 25" d="M980.124,322c6.846,8.187,3.994,25.073,3.422,31.213s-10.84,11.257-5.705,14.839,15.975,8.187,15.975,8.187l17.688,5.628s2.281,4.094,0,14.327-11.411,15.35-18.257,17.4-16.547,2.048-19.4,4.605-5.135,7.675-2.852,10.233,26.245,13.3,35.374,5.117,19.969-24.56,19.969-24.56l4.564-13.816-6.846-19.442s-10.27-1.536-17.116-9.211-10.27-25.072-10.27-25.072l-1.14-14.839-5.135-7.163Z" transform="translate(-850.467 -266.74)" fill="none" stroke="#a2d2ff" stroke-linecap="round" stroke-linejoin="round" stroke-width="1"/>
          <g id="Groupe_40" data-name="Groupe 40" transform="translate(98.049 5.712)">
            <path id="Tracé_26" data-name="Tracé 26" d="M956.678,323.858C960.055,328.906,973,339,973,339l9,7.065s2.25-11.1,3.939-12.617,20.823-.506,20.823-.506l-3.939-7.57a17.621,17.621,0,0,1-6.191-8.076c-1.689-5.047,9-13.628,5.628-17.161s-37.145-12.617-39.959-9.084,3.376,14.636-.563,17.665S956.678,323.858,956.678,323.858Z" transform="translate(-956.678 -290.25)" fill="none" stroke="#a2d2ff" stroke-linecap="round" stroke-linejoin="round" stroke-width="1"/>
            <path id="Tracé_27" data-name="Tracé 27" d="M996.678,325.275l-2.972-5.708a13.3,13.3,0,0,1-4.667-6.09c-1.273-3.805,6.79-10.275,4.243-12.939s-28.008-9.513-30.129-6.849,2.547,11.036-.423,13.319-3.82,11.418-3.82,11.418c2.546,3.805,12.306,11.416,12.306,11.416l6.79,5.328s1.7-8.372,2.97-9.515S996.678,325.275,996.678,325.275Z" transform="translate(-955.316 -288.522)" fill="none" stroke="#a2d2ff" stroke-linecap="round" stroke-linejoin="round" stroke-width="1"/>
            <path id="Tracé_28" data-name="Tracé 28" d="M986.588,317.607l-2-3.846a8.958,8.958,0,0,1-3.145-4.1c-.857-2.564,4.575-6.924,2.861-8.718s-18.87-6.41-20.3-4.615,1.714,7.435-.287,8.974-2.574,7.691-2.574,7.691c1.716,2.564,8.292,7.691,8.292,7.691l4.575,3.59s1.143-5.641,2-6.41S986.588,317.607,986.588,317.607Z" transform="translate(-953.955 -286.794)" fill="none" stroke="#a2d2ff" stroke-linecap="round" stroke-linejoin="round" stroke-width="1"/>
            <path id="Tracé_29" data-name="Tracé 29" d="M963.376,307.559a29.768,29.768,0,0,0,4.275,3.966l2.36,1.851s.589-2.909,1.032-3.306,5.456-.132,5.456-.132l-1.032-1.983a4.62,4.62,0,0,1-1.622-2.115c-.443-1.323,2.36-3.57,1.474-4.5s-9.731-3.306-10.468-2.381.885,3.834-.148,4.628S963.376,307.559,963.376,307.559Z" transform="translate(-952.594 -285.065)" fill="none" stroke="#a2d2ff" stroke-linecap="round" stroke-linejoin="round" stroke-width="1"/>
          </g>
          <g id="Groupe_41" data-name="Groupe 41" transform="translate(35.154 3.582)">
            <path id="Tracé_30" data-name="Tracé 30" d="M968.175,288.927c4.565,3.582,10.27,9.209,10.27,9.209s1.713,5.117.571,7.675-5.135,3.582-5.135,9.721a96.787,96.787,0,0,1-.572,10.745s-5.7.512-7.416,4.094-9.7,15.862-7.988,20.468,3.422,14.839,3.422,14.839-3.422,1.534-4.564,8.7,0,13.815,3.422,16.374,11.411,8.7,11.411,8.7,1.711,3.07,1.141,5.629-6.846,4.093-5.7,9.721a75.434,75.434,0,0,0,3.994,12.281l6.275,7.675,11.981,4.6s2.854,7.163,3.994,9.723,15.976,4.6,15.976,4.6l5.135,5.117s15.4,4.093-2.854,5.117a205.58,205.58,0,0,1-35.943-1.536c-6.276-4.094-23.393-14.327-32.521-24.048s-11.41-16.374-14.834-28.655-12.551-26.606-10.27-36.839-.57-19.444,3.994-25.583,2.283-9.211,10.27-16.374,9.7-11.257,10.27-17.908,2.853-11.769,4.564-12.281,9.7-6.139,9.7-6.139Z" transform="translate(-917.606 -288.927)" fill="none" stroke="#a2d2ff" stroke-linecap="round" stroke-linejoin="round" stroke-width="1"/>
            <path id="Tracé_31" data-name="Tracé 31" d="M955.21,308.469c2.9,2.4,6.516,6.172,6.516,6.172s1.087,3.429.362,5.143-3.258,2.4-3.258,6.515a68.487,68.487,0,0,1-.363,7.2s-3.62.343-4.7,2.743-6.156,10.631-5.069,13.717a80.806,80.806,0,0,1,2.172,9.943s-2.172,1.029-2.9,5.829,0,9.259,2.173,10.974,7.241,5.829,7.241,5.829a6.682,6.682,0,0,1,.723,3.772c-.362,1.714-4.343,2.743-3.62,6.515a52.647,52.647,0,0,0,2.535,8.229L961,406.193l7.6,3.086s1.811,4.8,2.534,6.515,10.136,3.086,10.136,3.086l3.26,3.429s9.774,2.743-1.811,3.429a123.536,123.536,0,0,1-22.807-1.029c-3.983-2.743-14.844-9.6-20.635-16.115s-7.241-10.974-9.412-19.2-7.965-17.831-6.516-24.688-.362-13.029,2.533-17.144,1.447-6.172,6.516-10.974,6.154-7.543,6.516-12,1.809-7.886,2.9-8.229,6.154-4.115,6.154-4.115Z" transform="translate(-914.242 -277.012)" fill="none" stroke="#a2d2ff" stroke-linecap="round" stroke-linejoin="round" stroke-width="1"/>
            <path id="Tracé_32" data-name="Tracé 32" d="M942.246,328.01c1.228,1.22,2.762,3.134,2.762,3.134a6.1,6.1,0,0,1,.155,2.613c-.308.871-1.383,1.219-1.383,3.308s-.153,3.656-.153,3.656a2.556,2.556,0,0,0-1.995,1.394c-.462,1.219-2.609,5.4-2.149,6.964a48.238,48.238,0,0,1,.921,5.05s-.921.522-1.229,2.959,0,4.7.921,5.573,3.07,2.959,3.07,2.959a3.952,3.952,0,0,1,.307,1.916c-.154.871-1.841,1.392-1.536,3.308a30.734,30.734,0,0,0,1.075,4.179l1.689,2.611,3.222,1.568s.768,2.437,1.074,3.308,4.3,1.566,4.3,1.566l1.381,1.742s4.145,1.392-.766,1.742a43.878,43.878,0,0,1-9.67-.523c-1.688-1.392-6.294-4.874-8.75-8.182s-3.07-5.573-3.99-9.75-3.376-9.055-2.762-12.537-.153-6.616,1.073-8.705.615-3.134,2.764-5.571,2.609-3.831,2.762-6.094.768-4.005,1.228-4.179a24.261,24.261,0,0,0,2.609-2.089Z" transform="translate(-910.878 -265.097)" fill="none" stroke="#a2d2ff" stroke-linecap="round" stroke-linejoin="round" stroke-width="1"/>
          </g>
          <path id="Tracé_33" data-name="Tracé 33" d="M957.152,286.7c-8.557,3.07-17.686,4.094-27.385,11.257s-18.258,11.255-14.835,15.861,13.694,7.163,13.694,7.163-.572-8.185,3.422-12.279q.423-.435.821-.86c3.5-3.73,5.656-6.925,8.308-8.351a40.647,40.647,0,0,0,6.276-4.605Z" transform="translate(-884.551 -286.702)" fill="none" stroke="#a2d2ff" stroke-linecap="round" stroke-linejoin="round" stroke-width="1"/>
          <path id="Tracé_34" data-name="Tracé 34" d="M906.808,326.232l1.539.312.793.179a3.983,3.983,0,0,0,.992-.357c.1-.134,0-.711.05-.845a2.854,2.854,0,0,1,.4-.489.909.909,0,0,1,.3.534,3.206,3.206,0,0,1-1.737,2.046c-1.091.4-.505,1.621-.505,1.621s.72,2.381-.521,2.337-.214-.4-.908-.977a3.452,3.452,0,0,1-.893-1.824,3.931,3.931,0,0,0,.248-1.246A4.521,4.521,0,0,1,906.808,326.232Z" transform="translate(-889.339 -263.331)" fill="#a2d2ff" stroke="#a2d2ff" stroke-linecap="round" stroke-linejoin="round" stroke-width="1"/>
          <g id="Groupe_42" data-name="Groupe 42" transform="translate(3.566 22.512)">
            <path id="Tracé_35" data-name="Tracé 35" d="M903.688,314.5l17.688,3.582,9.129,2.046s10.27-2.558,11.41-4.094,0-8.185.572-9.721,4.564-5.629,4.564-5.629,3.424,3.071,3.424,6.141-7.418,18.932-19.969,23.536-5.813,18.644-5.813,18.644,8.272,27.375-5.991,26.863-2.46-4.573-10.447-11.225-10.27-20.978-10.27-20.978,2.283-5.117,2.853-14.327A51.613,51.613,0,0,1,903.688,314.5Z" transform="translate(-897.983 -300.687)" fill="none" stroke="#a2d2ff" stroke-linecap="round" stroke-linejoin="round" stroke-width="1"/>
            <path id="Tracé_36" data-name="Tracé 36" d="M904.637,317.99l13.011,2.635,6.716,1.507s7.554-1.883,8.395-3.012,0-6.024.418-7.152,3.358-4.14,3.358-4.14,2.519,2.258,2.519,4.517-5.457,13.927-14.69,17.314-4.277,13.717-4.277,13.717,6.086,20.139-4.406,19.763-1.811-3.364-7.687-8.258-7.556-15.434-7.556-15.434a33.192,33.192,0,0,0,2.1-10.539A37.984,37.984,0,0,1,904.637,317.99Z" transform="translate(-896.485 -296.333)" fill="none" stroke="#a2d2ff" stroke-linecap="round" stroke-linejoin="round" stroke-width="1"/>
            <path id="Tracé_37" data-name="Tracé 37" d="M905.585,321.479l8.337,1.689,4.3.964s4.84-1.206,5.378-1.93,0-3.859.269-4.581a15.352,15.352,0,0,1,2.152-2.653s1.613,1.447,1.613,2.893-3.5,8.924-9.412,11.094-2.74,8.789-2.74,8.789,3.9,12.9-2.823,12.661-1.161-2.155-4.926-5.29-4.84-9.889-4.84-9.889a21.3,21.3,0,0,0,1.346-6.753A24.322,24.322,0,0,1,905.585,321.479Z" transform="translate(-894.988 -291.979)" fill="none" stroke="#a2d2ff" stroke-linecap="round" stroke-linejoin="round" stroke-width="1"/>
            <path id="Tracé_38" data-name="Tracé 38" d="M906.532,324.967l3.662.742,1.89.423a9.552,9.552,0,0,0,2.363-.847c.235-.319,0-1.7.118-2.012a6.7,6.7,0,0,1,.945-1.165,2.164,2.164,0,0,1,.708,1.27,7.64,7.64,0,0,1-4.134,4.873c-2.6.955-1.2,3.86-1.2,3.86s1.713,5.668-1.24,5.562-.51-.947-2.163-2.323S905.351,331,905.351,331a9.315,9.315,0,0,0,.591-2.965A10.722,10.722,0,0,1,906.532,324.967Z" transform="translate(-893.49 -287.626)" fill="none" stroke="#a2d2ff" stroke-linecap="round" stroke-linejoin="round" stroke-width="1"/>
          </g>
          <path id="Tracé_39" data-name="Tracé 39" d="M901.758,342.565c1.284,3.071,5.135,0,5.135,0a42.151,42.151,0,0,0,2.567,6.909c1.285,2.3,2.139,3.836,6.846,3.453s7.846-1.79,9.986,2.048.713,6.011.713,6.011l-8.557,3.454s-3-3.454-3.424,1.151-10.7,11.513-14.549,2.3a67.986,67.986,0,0,1-4.707-16.5Z" transform="translate(-895.768 -252.64)" fill="none" stroke="#a2d2ff" stroke-linecap="round" stroke-linejoin="round" stroke-width="1"/>
          <path id="Tracé_40" data-name="Tracé 40" d="M924.065,355.916a75.079,75.079,0,0,1,6.848,14.2v9.594s.427,3.838,1.711,4.605-.856,6.14,6.847,11.128,12.409,8.443,4.279,9.977-25.246-3.838-25.246-3.838L906.52,381.244s-4.707-2.3-2.566-8.06,2.14-9.594,6.418-10.745a12.132,12.132,0,0,0,6.418-4.221Z" transform="translate(-891.117 -244.5)" fill="none" stroke="#a2d2ff" stroke-linecap="round" stroke-linejoin="round" stroke-width="1"/>
          <path id="Tracé_41" data-name="Tracé 41" d="M946.32,388.814c-7.7,3.455-23.534.383-25.245,2.687s-5.563,8.058,3.851,11.128,11.981,4.605,17.544,3.07,14.12,3.07,13.692-2.3-8.557-10.745-8.557-10.745Z" transform="translate(-881.707 -224.441)" fill="none" stroke="#a2d2ff" stroke-linecap="round" stroke-linejoin="round" stroke-width="1"/>
          <path id="Tracé_42" data-name="Tracé 42" d="M935.8,338.5c-1.5,1.162-3.3,1.215-3.116,2.769s.182-1-.9,3.1a24.635,24.635,0,0,0-1.045,5.8,9.25,9.25,0,0,0-.078,2.814c.266.534,3.638,4.528,3.349,6.255s2.117-6.589.677-8.528a13.794,13.794,0,0,1-2.005-4.715l.736-1.813,1.119-3.139Z" transform="translate(-874.552 -255.117)" fill="#a2d2ff" stroke="#a2d2ff" stroke-linecap="round" stroke-linejoin="round" stroke-width="1"/>
          <path id="Tracé_43" data-name="Tracé 43" d="M966.82,300.975l-.571,2.943s-2.424.256-.57,1.407a10.411,10.411,0,0,0,3.281,1.407l1.854-1.792-1.141-1.919-.713-2.175Z" transform="translate(-853.567 -278.078)" fill="#a2d2ff" stroke="#a2d2ff" stroke-linecap="round" stroke-linejoin="round" stroke-width="1"/>
          <path id="Tracé_44" data-name="Tracé 44" d="M986.207,332.519c2.567,9.977-.428,16.117-.428,16.117l-1.285,6.524.428,5.372,5.563,4.222,14.549,10.36,10.27,6.907-3,11.9-13.264,21.873-15.405,3.454s-9.842,2.685-6.846,4.6,17.971,3.071,17.971,3.071,9.842-6.524,13.266-11.513,10.27-19.188,10.27-19.188l1.283-16.5-10.27-6.907s-19.256-14.2-19.256-17.269-1.711-27.246-1.711-27.246l-3.424-5.756-2.994,3.454Z" transform="translate(-846.71 -264.85)" fill="none" stroke="#a2d2ff" stroke-linecap="round" stroke-linejoin="round" stroke-width="1"/>
        </g>
        <path id="Tracé_146" data-name="Tracé 146" d="M85.582,0A85.582,85.582,0,1,1,0,85.582,85.582,85.582,0,0,1,85.582,0Z" transform="translate(35.659)" opacity="0.58" fill="url(#linear-gradient)" style="mix-blend-mode: multiply;isolation: isolate"/>
      </g>
    </g>
  </g>
</svg>
