<svg id="oiseau" xmlns="http://www.w3.org/2000/svg" xmlns:xlink="http://www.w3.org/1999/xlink" width="269.442" height="158.495" viewBox="0 0 269.442 158.495">
  <defs>
    <linearGradient id="linear-gradient" x1="0.873" y1="0.513" x2="1.946" y2="0.513" gradientUnits="objectBoundingBox">
      <stop offset="0.103" stop-color="#cdb4c4"/>
      <stop offset="0.528" stop-color="#968490"/>
      <stop offset="1" stop-color="#cdb4c4"/>
    </linearGradient>
    <linearGradient id="linear-gradient-2" y1="0.5" x2="1" y2="0.5" gradientUnits="objectBoundingBox">
      <stop offset="0.039" stop-color="#968490"/>
      <stop offset="0.297" stop-color="#cdb4c4"/>
      <stop offset="0.504" stop-color="#cdb4c4"/>
      <stop offset="0.992" stop-color="#968490"/>
    </linearGradient>
    <radialGradient id="radial-gradient" cx="0.441" cy="0.55" r="0.715" gradientTransform="matrix(0.561, 0.669, -0.271, 0.399, -4.005, 5.115)" gradientUnits="objectBoundingBox">
      <stop offset="0" stop-color="#968490" stop-opacity="0.898"/>
      <stop offset="0.142" stop-color="#988592" stop-opacity="0.863"/>
      <stop offset="0.326" stop-color="#9e8b97" stop-opacity="0.757"/>
      <stop offset="0.531" stop-color="#a894a1" stop-opacity="0.58"/>
      <stop offset="0.754" stop-color="#b6a0ae" stop-opacity="0.333"/>
      <stop offset="0.987" stop-color="#c8b0bf" stop-opacity="0.02"/>
      <stop offset="1" stop-color="#cab1c1" stop-opacity="0"/>
    </radialGradient>
    <linearGradient id="linear-gradient-3" y1="0.5" x2="1" y2="0.5" gradientUnits="objectBoundingBox">
      <stop offset="0.021" stop-color="#ffafcc"/>
      <stop offset="0.775" stop-color="#ec9e46"/>
    </linearGradient>
    <clipPath id="clip-path">
      <path id="Tracé_53" data-name="Tracé 53" d="M802.28,399c0-.832,2.113-.387,2.942-.387s1.487,2.567,1.487,3.4-.715,0-1.547,0S802.28,399.829,802.28,399Z" transform="translate(-802.28 -398.494)" fill="#ff4f92"/>
    </clipPath>
    <radialGradient id="radial-gradient-2" cx="0.618" cy="0.482" r="0.729" gradientTransform="translate(0.281 0.002) scale(0.545 0.996)" gradientUnits="objectBoundingBox">
      <stop offset="0" stop-color="#968490" stop-opacity="0.8"/>
      <stop offset="0.153" stop-color="#988692" stop-opacity="0.761"/>
      <stop offset="0.35" stop-color="#9f8c98" stop-opacity="0.655"/>
      <stop offset="0.571" stop-color="#aa96a3" stop-opacity="0.478"/>
      <stop offset="0.808" stop-color="#baa3b2" stop-opacity="0.235"/>
      <stop offset="1" stop-color="#cab1c1" stop-opacity="0"/>
    </radialGradient>
  </defs>
  <path id="Tracé_48" data-name="Tracé 48" d="M815.291,384.062c-10.223,3.269-50.971,37.793-54.439,40.371s-5.282,2.79-7.868,3.721-4.432,9.529,5.757,3.664,26.428-23.8,26.428-23.8-25.328,21.74-29.037,27.468,2.889,7.571,4.984,4.383c.885-1.349,6.537-7.739,12.771-14.668a180.137,180.137,0,0,1,14.41-14.558s-31.027,30.064-26.43,31.249,8.854.8,12.823-5.165,4.224-10.381,8.572-14.609,5.695-5.695,5.695-5.695l5.86-5.449s-25.355,24.523-19,28.06,9.18-.544,9.18-.544l1.981-3.711c1.759-3.3,4.977-11.291,4.977-11.291l12.619-16.054s29.686-7.025,33.008-8.843-1.485-17-1.485-17S820.278,382.468,815.291,384.062Z" transform="translate(-689.732 -326.937)" fill="url(#linear-gradient)"/>
  <path id="Tracé_49" data-name="Tracé 49" d="M753.289,466.111c31.7-27.736,33.344-42.846,49.532-49.529,13.643-5.634,64.322,1.605,66.122,0,0,0-8.669,3.962,3.217-17.831S911.867,358.8,937.622,358.8s55.392-1.652,55.392-1.652-71.405,14.363-87.255,28.232c-5.943,5.2-6.2,13.9-10.071,19.153-6.459,8.754-12.812,12.809-.5,21.214,21.051,14.363,26.252,15.354,20.308,27.242s-18.327,9.163-28.233-4.706-11.143-5.695-28.975.248-28.975-21.545-48.787-5.7-26.5,11.392-42.348,35.166-43.586,37.643-43.586,37.643Z" transform="translate(-723.572 -357.145)" fill="url(#linear-gradient-2)"/>
  <path id="Tracé_50" data-name="Tracé 50" d="M798.811,395.867c2.077-2.305,9.435.539,13.737,4.409s9.7,7.153,7.622,9.46-11.336,3.674-15.635-.2S796.736,398.174,798.811,395.867Z" transform="translate(-631.345 -310.313)" fill="url(#radial-gradient)"/>
  <path id="Tracé_51" data-name="Tracé 51" d="M807.466,406.327s11.092,9.5,9.742,7.738c-2.26-2.949-6.37-5.8-8.329-7.924-2.1-2.28,12.2,10.227,10.8,7.893-2.135-3.56-7.51-13.156-7.51-13.156s-2.138-2.082-2.951-1.8c-1.362.481-1.959,5.429-1.959,5.429Z" transform="translate(-620.141 -305.348)" fill="url(#linear-gradient-3)"/>
  <g id="Groupe_47" data-name="Groupe 47" transform="translate(175.982 92.451)">
    <path id="Tracé_52" data-name="Tracé 52" d="M802.28,399c0-.832,2.113-.387,2.942-.387s1.487,2.567,1.487,3.4-.715,0-1.547,0S802.28,399.829,802.28,399Z" transform="translate(-802.28 -398.494)" fill="#ff4f92"/>
    <g id="Groupe_46" data-name="Groupe 46" clip-path="url(#clip-path)">
      <circle id="Ellipse_47" data-name="Ellipse 47" cx="2.159" cy="2.159" r="2.159" transform="translate(0.289 -0.412)" fill="#fff"/>
      <ellipse id="Ellipse_48" data-name="Ellipse 48" cx="1.907" cy="1.987" rx="1.907" ry="1.987" transform="translate(0.544 -0.141)"/>
      <circle id="Ellipse_49" data-name="Ellipse 49" cx="0.531" cy="0.531" r="0.531" transform="translate(2.377 1.286)" fill="#fff"/>
    </g>
  </g>
  <path id="Tracé_54" data-name="Tracé 54" d="M843.887,367.926c-6.193,5.022-23.517,26.8-18.987,36.156-10.113-1.936-5.366-.083-31.2-2.723-1.158-.119-46.05-2.4-33.666,7.94,5.351,4.47,23.278,13.216,46.213,16.577,9.4,1.377,22.281-6.307,31.37-4.952,13.29,1.981,21.462,7.676,27.9,6.274,7.609-1.659-17.811-16.031-18.987-19.481-4.7-13.789-.7-15.175,1.816-19.153C860.536,369.279,843.887,367.926,843.887,367.926Z" transform="translate(-681.182 -343.821)" fill="url(#radial-gradient-2)"/>
</svg>
